%YAML 1.1
%TAG !u! tag:unity3d.com,2011:
--- !u!114 &11400000
MonoBehaviour:
  m_ObjectHideFlags: 0
  m_CorrespondingSourceObject: {fileID: 0}
  m_PrefabInstance: {fileID: 0}
  m_PrefabAsset: {fileID: 0}
  m_GameObject: {fileID: 0}
  m_Enabled: 1
  m_EditorHideFlags: 0
  m_Script: {fileID: 11500000, guid: d99b0eb820044d97814758994d7978d8, type: 3}
  m_Name: Level5Data
  m_EditorClassIdentifier: 
  levelTag: levell5
  levelName: Real challange
  image: {fileID: 21300000, guid: 117fed75cb3f44d7691dd0b37bc9c262, type: 3}
  level: Level5
