%YAML 1.1
%TAG !u! tag:unity3d.com,2011:
--- !u!1001 &633475835173398442
PrefabInstance:
  m_ObjectHideFlags: 0
  serializedVersion: 2
  m_Modification:
    serializedVersion: 3
    m_TransformParent: {fileID: 0}
    m_Modifications:
    - target: {fileID: -8679921383154817045, guid: 766beb44117e64cedb6c54315b1bb8d6,
        type: 3}
      propertyPath: m_RootOrder
      value: 0
      objectReference: {fileID: 0}
    - target: {fileID: -8679921383154817045, guid: 766beb44117e64cedb6c54315b1bb8d6,
        type: 3}
      propertyPath: m_LocalPosition.x
      value: 1
      objectReference: {fileID: 0}
    - target: {fileID: -8679921383154817045, guid: 766beb44117e64cedb6c54315b1bb8d6,
        type: 3}
      propertyPath: m_LocalPosition.y
      value: 0
      objectReference: {fileID: 0}
    - target: {fileID: -8679921383154817045, guid: 766beb44117e64cedb6c54315b1bb8d6,
        type: 3}
      propertyPath: m_LocalPosition.z
      value: 1
      objectReference: {fileID: 0}
    - target: {fileID: -8679921383154817045, guid: 766beb44117e64cedb6c54315b1bb8d6,
        type: 3}
      propertyPath: m_LocalRotation.w
      value: 1
      objectReference: {fileID: 0}
    - target: {fileID: -8679921383154817045, guid: 766beb44117e64cedb6c54315b1bb8d6,
        type: 3}
      propertyPath: m_LocalRotation.x
      value: 0
      objectReference: {fileID: 0}
    - target: {fileID: -8679921383154817045, guid: 766beb44117e64cedb6c54315b1bb8d6,
        type: 3}
      propertyPath: m_LocalRotation.y
      value: -0
      objectReference: {fileID: 0}
    - target: {fileID: -8679921383154817045, guid: 766beb44117e64cedb6c54315b1bb8d6,
        type: 3}
      propertyPath: m_LocalRotation.z
      value: -0
      objectReference: {fileID: 0}
    - target: {fileID: -8679921383154817045, guid: 766beb44117e64cedb6c54315b1bb8d6,
        type: 3}
      propertyPath: m_LocalEulerAnglesHint.x
      value: 0
      objectReference: {fileID: 0}
    - target: {fileID: -8679921383154817045, guid: 766beb44117e64cedb6c54315b1bb8d6,
        type: 3}
      propertyPath: m_LocalEulerAnglesHint.y
      value: 0
      objectReference: {fileID: 0}
    - target: {fileID: -8679921383154817045, guid: 766beb44117e64cedb6c54315b1bb8d6,
        type: 3}
      propertyPath: m_LocalEulerAnglesHint.z
      value: 0
      objectReference: {fileID: 0}
    - target: {fileID: 919132149155446097, guid: 766beb44117e64cedb6c54315b1bb8d6,
        type: 3}
      propertyPath: m_Name
      value: Column
      objectReference: {fileID: 0}
    - target: {fileID: 919132149155446097, guid: 766beb44117e64cedb6c54315b1bb8d6,
        type: 3}
      propertyPath: m_Layer
      value: 8
      objectReference: {fileID: 0}
    m_RemovedComponents: []
    m_RemovedGameObjects: []
    m_AddedGameObjects: []
    m_AddedComponents:
    - targetCorrespondingSourceObject: {fileID: 919132149155446097, guid: 766beb44117e64cedb6c54315b1bb8d6,
        type: 3}
      insertIndex: -1
      addedObject: {fileID: 7015092990312331907}
  m_SourcePrefab: {fileID: 100100000, guid: 766beb44117e64cedb6c54315b1bb8d6, type: 3}
--- !u!1 &291580843988671227 stripped
GameObject:
  m_CorrespondingSourceObject: {fileID: 919132149155446097, guid: 766beb44117e64cedb6c54315b1bb8d6,
    type: 3}
  m_PrefabInstance: {fileID: 633475835173398442}
  m_PrefabAsset: {fileID: 0}
--- !u!65 &7015092990312331907
BoxCollider:
  m_ObjectHideFlags: 0
  m_CorrespondingSourceObject: {fileID: 0}
  m_PrefabInstance: {fileID: 0}
  m_PrefabAsset: {fileID: 0}
  m_GameObject: {fileID: 291580843988671227}
  m_Material: {fileID: 0}
  m_IncludeLayers:
    serializedVersion: 2
    m_Bits: 0
  m_ExcludeLayers:
    serializedVersion: 2
    m_Bits: 0
  m_LayerOverridePriority: 0
  m_IsTrigger: 0
  m_ProvidesContacts: 0
  m_Enabled: 1
  serializedVersion: 3
  m_Size: {x: 0.49999997, y: 1.0999999, z: 0.49999997}
  m_Center: {x: 0, y: 0.54999995, z: 0}
