%YAML 1.1
%TAG !u! tag:unity3d.com,2011:
--- !u!1001 &4970198115407339010
PrefabInstance:
  m_ObjectHideFlags: 0
  serializedVersion: 2
  m_Modification:
    serializedVersion: 3
    m_TransformParent: {fileID: 0}
    m_Modifications:
    - target: {fileID: -8679921383154817045, guid: 211217c11c28a4b359eb1d00134137db,
        type: 3}
      propertyPath: m_RootOrder
      value: 0
      objectReference: {fileID: 0}
    - target: {fileID: -8679921383154817045, guid: 211217c11c28a4b359eb1d00134137db,
        type: 3}
      propertyPath: m_LocalPosition.x
      value: -3
      objectReference: {fileID: 0}
    - target: {fileID: -8679921383154817045, guid: 211217c11c28a4b359eb1d00134137db,
        type: 3}
      propertyPath: m_LocalPosition.y
      value: 0
      objectReference: {fileID: 0}
    - target: {fileID: -8679921383154817045, guid: 211217c11c28a4b359eb1d00134137db,
        type: 3}
      propertyPath: m_LocalPosition.z
      value: -2
      objectReference: {fileID: 0}
    - target: {fileID: -8679921383154817045, guid: 211217c11c28a4b359eb1d00134137db,
        type: 3}
      propertyPath: m_LocalRotation.w
      value: 0.7071808
      objectReference: {fileID: 0}
    - target: {fileID: -8679921383154817045, guid: 211217c11c28a4b359eb1d00134137db,
        type: 3}
      propertyPath: m_LocalRotation.x
      value: -0
      objectReference: {fileID: 0}
    - target: {fileID: -8679921383154817045, guid: 211217c11c28a4b359eb1d00134137db,
        type: 3}
      propertyPath: m_LocalRotation.y
      value: 0.7070328
      objectReference: {fileID: 0}
    - target: {fileID: -8679921383154817045, guid: 211217c11c28a4b359eb1d00134137db,
        type: 3}
      propertyPath: m_LocalRotation.z
      value: -0
      objectReference: {fileID: 0}
    - target: {fileID: -8679921383154817045, guid: 211217c11c28a4b359eb1d00134137db,
        type: 3}
      propertyPath: m_LocalEulerAnglesHint.x
      value: 0
      objectReference: {fileID: 0}
    - target: {fileID: -8679921383154817045, guid: 211217c11c28a4b359eb1d00134137db,
        type: 3}
      propertyPath: m_LocalEulerAnglesHint.y
      value: 89.988
      objectReference: {fileID: 0}
    - target: {fileID: -8679921383154817045, guid: 211217c11c28a4b359eb1d00134137db,
        type: 3}
      propertyPath: m_LocalEulerAnglesHint.z
      value: 0
      objectReference: {fileID: 0}
    - target: {fileID: 919132149155446097, guid: 211217c11c28a4b359eb1d00134137db,
        type: 3}
      propertyPath: m_Name
      value: WallHalf
      objectReference: {fileID: 0}
    - target: {fileID: 919132149155446097, guid: 211217c11c28a4b359eb1d00134137db,
        type: 3}
      propertyPath: m_Layer
      value: 8
      objectReference: {fileID: 0}
    m_RemovedComponents: []
    m_RemovedGameObjects: []
    m_AddedGameObjects: []
    m_AddedComponents:
    - targetCorrespondingSourceObject: {fileID: 919132149155446097, guid: 211217c11c28a4b359eb1d00134137db,
        type: 3}
      insertIndex: -1
      addedObject: {fileID: 5362773302657427935}
  m_SourcePrefab: {fileID: 100100000, guid: 211217c11c28a4b359eb1d00134137db, type: 3}
--- !u!1 &5204148013515580243 stripped
GameObject:
  m_CorrespondingSourceObject: {fileID: 919132149155446097, guid: 211217c11c28a4b359eb1d00134137db,
    type: 3}
  m_PrefabInstance: {fileID: 4970198115407339010}
  m_PrefabAsset: {fileID: 0}
--- !u!65 &5362773302657427935
BoxCollider:
  m_ObjectHideFlags: 0
  m_CorrespondingSourceObject: {fileID: 0}
  m_PrefabInstance: {fileID: 0}
  m_PrefabAsset: {fileID: 0}
  m_GameObject: {fileID: 5204148013515580243}
  m_Material: {fileID: 0}
  m_IncludeLayers:
    serializedVersion: 2
    m_Bits: 0
  m_ExcludeLayers:
    serializedVersion: 2
    m_Bits: 0
  m_LayerOverridePriority: 0
  m_IsTrigger: 0
  m_ProvidesContacts: 0
  m_Enabled: 1
  serializedVersion: 3
  m_Size: {x: 0.99999994, y: 0.99999994, z: 0.99999994}
  m_Center: {x: 0, y: 0.49999997, z: 0}
